Test Site 2 - Easily view your data by a grouping variable
…
      February 23, 2024

It is easy enough to view a dataframe in RStudio by opening the dataframe in the viewer or printing the dataframe (or part of it) to the console. However, this can be messy if you want to quickly identify data by a grouping variable (usually the patient id). The by() function can help you to do this. Let’s illustrate its utility with the sleepstudy dataset from the lme4 package. To start with I’ll print the data for the first 3 subjects as one might.

sleepstudy |> as_tibble() |> print(n = 30)

Code

library(lme4)
library(dplyr)
# Load data
data("sleepstudy")
sleepstudy |> as_tibble() |> print(n = 30)

# A tibble: 180 × 3
   Reaction  Days Subject
      <dbl> <dbl> <fct>  
 1     250.     0 308    
 2     259.     1 308    
 3     251.     2 308    
 4     321.     3 308    
 5     357.     4 308    
 6     415.     5 308    
 7     382.     6 308    
 8     290.     7 308    
 9     431.     8 308    
10     466.     9 308    
11     223.     0 309    
12     205.     1 309    
13     203.     2 309    
14     205.     3 309    
15     208.     4 309    
16     216.     5 309    
17     214.     6 309    
18     218.     7 309    
19     224.     8 309    
20     237.     9 309    
21     199.     0 310    
22     194.     1 310    
23     234.     2 310    
24     233.     3 310    
25     229.     4 310    
26     220.     5 310    
27     235.     6 310    
28     256.     7 310    
29     261.     8 310    
30     248.     9 310    
# ℹ 150 more rows
…
